…
2. Outcomes: Moving in with a partner, marriage, divorce, and child birth. These were cleaned, coded as 1 (occurred) or 0 (did not occur) according to whether an outcome occurred for each individual or not after each possible measured personality year. Moreover, people who experienced these outcomes prior to the target personality year are excluded.

3. Covariates: Age, gender (0 = male, 1 = female, education (0 = high school or below, 1 = college, 2 = higher than college), gross wages, self-rated health, smoking (0 = never smoked 1 = ever smoked), exercise, BMI, religion, parental education, and parental occupational prestige (ISEI). Each of these were composited for all available data up to the measured personality years.

First, the code below will download a .zip file when you run it. Once, you do, navigate to your Desktop to unzip the folder. You should now be able to run the rest of the code.

data_source <- "https://github.com/emoriebeck/R-tutorials/raw/master/09_tables-p1/09_tables-p1.zip"
data_dest <- "~/Desktop/09_tables-p1.zip"
download.file(data_source, data_dest)
unzip(data_dest, exdir = "~/Desktop")

wd <- "~/Desktop/tables"
(gsoep <- sprintf("%s/data/gsoep.csv", wd) %>% read_csv())

## # A tibble: 329,651 x 21
##    p_year   SID Outcome   o_value Trait p_value   age education gender grsWages
##     <dbl> <dbl> <chr>       <dbl> <chr>   <dbl> <dbl>     <dbl>  <dbl>    <dbl>
##  1   2005   901 chldbrth        0 OP          4    33        NA      1   13597.
##  2   2005   901 divorced        0 OP          4    33        NA      1   13597.
##  3   2005   901 married         0 OP          4    33        NA      1   13597.
##  4   2005   901 mvInPrtnr       0 OP          4    33        NA      1   13597.
##  5   2005  1202 chldbrth        0 OP          2    71        NA      1    3900.
##  6   2005  1202 divorced        0 OP          2    71        NA      1    3900.
##  7   2005  1202 mvInPrtnr       0 OP          2    71        NA      1    3900.
##  8   2005  2301 chldbrth        0 OP          3    38        NA      0   33429.
##  9   2005  2301 divorced        0 OP          3    38        NA      0   33429.
## 10   2005  2301 mvInPrtnr       1 OP          3    38        NA      0   33429.
## # … with 329,641 more rows, and 11 more variables: physhlthevnt <dbl>,
## #   SRhealth <dbl>, smokes <dbl>, exercise <dbl>, BMI <dbl>, married <dbl>,
## #   numKids <dbl>, PhysFunc <dbl>, religion <dbl>, parEdu <dbl>,
## #   parOccPrstg <dbl>
…
Create the Table

tidy2 <- gsoep_nested2 %>%
  select(Outcome, Trait, tidy) %>%
  unnest(tidy)
tidy2

## # A tibble: 40 x 9
##    Outcome Trait term  estimate std.error statistic   p.value conf.low conf.high
##    <chr>   <chr> <chr>    <dbl>     <dbl>     <dbl>     <dbl>    <dbl>     <dbl>
##  1 chldbr… OP    (Int…  -4.30      0.186     -23.1  1.84e-118  -4.67      -3.94 
##  2 chldbr… OP    p_va…   0.518     0.0582      8.90 5.53e- 19   0.405      0.633
##  3 divorc… OP    (Int…  -4.11      0.255     -16.1  2.71e- 58  -4.62      -3.62 
##  4 divorc… OP    p_va…   0.0981    0.0850      1.15 2.48e-  1  -0.0672     0.266
##  5 married OP    (Int…  -3.42      0.160     -21.4  9.09e-102  -3.74      -3.12 
##  6 married OP    p_va…   0.275     0.0520      5.28 1.28e-  7   0.173      0.377
##  7 mvInPr… OP    (Int…  -4.30      0.198     -21.7  1.12e-104  -4.70      -3.92 
##  8 mvInPr… OP    p_va…   0.459     0.0625      7.34 2.17e- 13   0.337      0.582
##  9 chldbr… DEP   (Int…  -3.48      0.146     -23.8  3.86e-125  -3.76      -3.19 
## 10 chldbr… DEP   p_va…   0.143     0.0364      3.92 9.00e-  5   0.0716     0.214
## # … with 30 more rows
…
Great, we’re all set right? Not quite. If we want to do a span header, we need our data in shape for that. But right now, our outcomes are rows, not columns. To get them as columns, we will need to: (1) pivot_longer() the OR’s and CI’s, (2) unite() the outcomes and type of estimate, (3) pivot_wider() these united terms, (4) reorder these columns as we want.

Let’s do each in turn:

(1) Long format

tidy2 <- tidy2 %>%
  pivot_longer(cols = c(OR, CI), names_to = "est", values_to = "value")
tidy2

## # A tibble: 40 x 4
##    Outcome   Trait est   value                        
##    <chr>     <chr> <chr> <chr>                        
##  1 chldbrth  OP    OR    <strong>1.68</strong>        
##  2 chldbrth  OP    CI    <strong>[1.50, 1.88]</strong>
##  3 divorced  OP    OR    1.10                         
##  4 divorced  OP    CI    [0.93, 1.30]                 
##  5 married   OP    OR    <strong>1.32</strong>        
##  6 married   OP    CI    <strong>[1.19, 1.46]</strong>
##  7 mvInPrtnr OP    OR    <strong>1.58</strong>        
##  8 mvInPrtnr OP    CI    <strong>[1.40, 1.79]</strong>
##  9 chldbrth  DEP   OR    <strong>1.15</strong>        
## 10 chldbrth  DEP   CI    <strong>[1.07, 1.24]</strong>
## # … with 30 more rows

Unite!

tidy2 <- tidy2 %>%
  unite(tmp, Outcome, est, sep = "_")
tidy2

## # A tibble: 40 x 3
##    tmp          Trait value                        
##    <chr>        <chr> <chr>                        
##  1 chldbrth_OR  OP    <strong>1.68</strong>        
##  2 chldbrth_CI  OP    <strong>[1.50, 1.88]</strong>
##  3 divorced_OR  OP    1.10                         
##  4 divorced_CI  OP    [0.93, 1.30]                 
##  5 married_OR   OP    <strong>1.32</strong>        
##  6 married_CI   OP    <strong>[1.19, 1.46]</strong>
##  7 mvInPrtnr_OR OP    <strong>1.58</strong>        
##  8 mvInPrtnr_CI OP    <strong>[1.40, 1.79]</strong>
##  9 chldbrth_OR  DEP   <strong>1.15</strong>        
## 10 chldbrth_CI  DEP   <strong>[1.07, 1.24]</strong>
## # … with 30 more rows
…
This time, we need to add a new grouping variable – namely, the target covariates.

Only trick is we also need the combination with no covariate. There’s lots of ways to add this on. I’ll show you one way.

gsoep_nested3 <- gsoep_long %>%
  full_join(gsoep %>% select(SID, Outcome, o_value, Trait, p_value) %>%
              mutate(Covariate = "none")) %>% 
  group_by(Trait, Outcome, Covariate) %>%
  nest() %>%
  ungroup() %>%
  arrange(Outcome, Trait, Covariate)
gsoep_nested3

## # A tibble: 100 x 4
##    Outcome  Trait  Covariate data                 
##    <chr>    <chr>  <chr>     <list>               
##  1 chldbrth DEP    age       <tibble [28,634 × 4]>
##  2 chldbrth DEP    gender    <tibble [28,634 × 4]>
##  3 chldbrth DEP    none      <tibble [28,634 × 4]>
##  4 chldbrth DEP    parEdu    <tibble [28,634 × 4]>
##  5 chldbrth DEP    SRhealth  <tibble [28,634 × 4]>
##  6 chldbrth NegAff age       <tibble [16,992 × 4]>
##  7 chldbrth NegAff gender    <tibble [16,992 × 4]>
##  8 chldbrth NegAff none      <tibble [16,992 × 4]>
##  9 chldbrth NegAff parEdu    <tibble [16,992 × 4]>
## 10 chldbrth NegAff SRhealth  <tibble [16,992 × 4]>
## # … with 90 more rows
…
factor_fun <- function(x){if(is.numeric(x)){diff(range(x, na.rm = T)) %in% 1:2 & length(unique(x)) <= 4} else{F}}

mod3_fun <- function(d, cov){
  d$o_value <- factor(d$o_value)
  d <- d %>% mutate_if(factor_fun, factor)
  if(cov == "none"){f <- formula(o_value ~ p_value)} else{f <- formula(o_value ~ p_value + c_value)}
  glm(f, data = d, family = binomial(link = "logit"))
}

gsoep_nested3 <- gsoep_nested3 %>%
  mutate(m = map2(data, Covariate, mod3_fun),
         tidy = map(m, ~tidy(., conf.int = T)))
gsoep_nested3

## # A tibble: 100 x 6
##    Outcome  Trait  Covariate data                  m      tidy            
##    <chr>    <chr>  <chr>     <list>                <list> <list>          
##  1 chldbrth DEP    age       <tibble [28,634 × 4]> <glm>  <tibble [3 × 7]>
##  2 chldbrth DEP    gender    <tibble [28,634 × 4]> <glm>  <tibble [3 × 7]>
##  3 chldbrth DEP    none      <tibble [28,634 × 4]> <glm>  <tibble [2 × 7]>
##  4 chldbrth DEP    parEdu    <tibble [28,634 × 4]> <glm>  <tibble [4 × 7]>
##  5 chldbrth DEP    SRhealth  <tibble [28,634 × 4]> <glm>  <tibble [3 × 7]>
##  6 chldbrth NegAff age       <tibble [16,992 × 4]> <glm>  <tibble [3 × 7]>
##  7 chldbrth NegAff gender    <tibble [16,992 × 4]> <glm>  <tibble [3 × 7]>
##  8 chldbrth NegAff none      <tibble [16,992 × 4]> <glm>  <tibble [2 × 7]>
##  9 chldbrth NegAff parEdu    <tibble [16,992 × 4]> <glm>  <tibble [4 × 7]>
## 10 chldbrth NegAff SRhealth  <tibble [16,992 × 4]> <glm>  <tibble [3 × 7]>
## # … with 90 more rows

Looking specifically at the tidy column, notice that there are different numbers of rows. This is good! We should see 3 rows for age, gender, and SRhealth because we have one new term – a continuous covariate of two level binary covariate. We should see 4 rows for parEdu because we have two new terms – for a three level categorical covariate. Finally, when there is no covariate, we should just have 2 rows like in the previous example.

Create the Table

tidy3 <- gsoep_nested3 %>%
  select(Outcome, Trait, Covariate, tidy) %>%
  unnest(tidy)
tidy3

## # A tibble: 300 x 10
##    Outcome Trait Covariate term  estimate std.error statistic   p.value conf.low
##    <chr>   <chr> <chr>     <chr>    <dbl>     <dbl>     <dbl>     <dbl>    <dbl>
##  1 chldbr… DEP   age       (Int…  -4.06     0.161      -25.1  1.95e-139 -4.37   
##  2 chldbr… DEP   age       p_va…   0.146    0.0397       3.69 2.26e-  4  0.0690 
##  3 chldbr… DEP   age       c_va…  -0.0663   0.00178    -37.3  2.96e-304 -0.0698 
##  4 chldbr… DEP   gender    (Int…  -3.57     0.153      -23.3  5.75e-120 -3.87   
##  5 chldbr… DEP   gender    p_va…   0.151    0.0367       4.11 3.91e-  5  0.0794 
##  6 chldbr… DEP   gender    c_va…   0.113    0.0541       2.09 3.66e-  2  0.00719
##  7 chldbr… DEP   none      (Int…  -3.48     0.146      -23.8  3.86e-125 -3.76   
##  8 chldbr… DEP   none      p_va…   0.143    0.0364       3.92 9.00e-  5  0.0716 
##  9 chldbr… DEP   parEdu    (Int…  -3.49     0.150      -23.2  2.26e-119 -3.78   
## 10 chldbr… DEP   parEdu    p_va…   0.117    0.0374       3.14 1.69e-  3  0.0446 
## # … with 290 more rows, and 1 more variable: conf.high <dbl>
…
Now we’re ready for the pivot_longer(), unite(), pivot_wider(), order columns (using select()) combo from before. The only difference is that I’m going to use pivot_wider() to do the uniting for me this time!

O_names <- tibble(
  old = c("mvInPrtnr", "married", "divorced", "chldbrth"),
  new = c("Move in with Partner", "Married", "Divorced", "Birth of a Child")
)
levs <- paste(rep(O_names$old, each = 2), rep(c("OR","CI"), times = 4), sep = "_")

tidy3 <- tidy3 %>%
  pivot_longer(cols = c(OR, CI), names_to = "est", values_to = "value") %>%
  pivot_wider(names_from = c("Outcome", "est"), values_from = "value", names_sep = "_") %>%
  select(Trait, Covariate, all_of(levs))
tidy3

## # A tibble: 25 x 10
##    Trait  Covariate mvInPrtnr_OR  mvInPrtnr_CI married_OR married_CI divorced_OR
##    <chr>  <chr>     <chr>         <chr>        <chr>      <chr>      <chr>      
##  1 DEP    age       <strong>0.88… <strong>[0.… 0.99       [0.92, 1.… <strong>0.…
##  2 DEP    gender    <strong>0.91… <strong>[0.… 0.99       [0.93, 1.… <strong>0.…
##  3 DEP    none      <strong>0.91… <strong>[0.… 0.99       [0.93, 1.… <strong>0.…
##  4 DEP    parEdu    <strong>0.89… <strong>[0.… 0.97       [0.91, 1.… <strong>0.…
##  5 DEP    SRhealth  <strong>0.63… <strong>[0.… <strong>0… <strong>[… <strong>0.…
##  6 NegAff age       <strong>1.20… <strong>[1.… <strong>1… <strong>[… <strong>1.…
##  7 NegAff gender    <strong>1.34… <strong>[1.… <strong>1… <strong>[… <strong>1.…
##  8 NegAff none      <strong>1.33… <strong>[1.… <strong>1… <strong>[… <strong>1.…
##  9 NegAff parEdu    <strong>1.35… <strong>[1.… <strong>1… <strong>[… <strong>1.…
## 10 NegAff SRhealth  <strong>1.58… <strong>[1.… <strong>1… <strong>[… <strong>1.…
## # … with 15 more rows, and 3 more variables: divorced_CI <chr>,
## #   chldbrth_OR <chr>, chldbrth_CI <chr>
…
c_names <- tibble(
  old = c("none", "age", "SRhealth", "gender", "parEdu"),
  new = c("None", "Age", "Self-Rated Health", "Gender", "Parental Education")
)

tidy3 <- tidy3 %>%
  mutate(Trait = mapvalues(Trait, from = p_names$old, to = p_names$new),
         Trait = factor(Trait, levels = p_names$new),
         Covariate = mapvalues(Covariate, from = c_names$old, to = c_names$new),
         Covariate = factor(Covariate, levels = c_names$new)) %>%
  arrange(Trait, Covariate)
tidy3

## # A tibble: 25 x 10
##    Trait  Covariate  mvInPrtnr_OR mvInPrtnr_CI married_OR married_CI divorced_OR
##    <fct>  <fct>      <chr>        <chr>        <chr>      <chr>      <chr>      
##  1 Negat… None       <strong>1.3… <strong>[1.… <strong>1… <strong>[… <strong>1.…
##  2 Negat… Age        <strong>1.2… <strong>[1.… <strong>1… <strong>[… <strong>1.…
##  3 Negat… Self-Rate… <strong>1.5… <strong>[1.… <strong>1… <strong>[… <strong>1.…
##  4 Negat… Gender     <strong>1.3… <strong>[1.… <strong>1… <strong>[… <strong>1.…
##  5 Negat… Parental … <strong>1.3… <strong>[1.… <strong>1… <strong>[… <strong>1.…
##  6 Posit… None       <strong>1.3… <strong>[1.… <strong>1… <strong>[… <strong>0.…
##  7 Posit… Age        1.11         [0.99, 1.24] <strong>1… <strong>[… <strong>0.…
##  8 Posit… Self-Rate… <strong>1.1… <strong>[1.… <strong>1… <strong>[… <strong>0.…
##  9 Posit… Gender     <strong>1.3… <strong>[1.… <strong>1… <strong>[… <strong>0.…
## 10 Posit… Parental … <strong>1.3… <strong>[1.… <strong>1… <strong>[… <strong>0.…
## # … with 15 more rows, and 3 more variables: divorced_CI <chr>,
## #   chldbrth_OR <chr>, chldbrth_CI <chr>
…
But first, the set up

### Set up Data

This time, we need to add a new grouping variable – namely, the target moderators. We aren’t going to include the “none” condition here, as we assume we’ve already tested and presented those results separately.

gsoep_nested4 <- gsoep_long %>%
  group_by(Trait, Outcome, Covariate) %>%
  nest() %>%
  ungroup() %>%
  arrange(Outcome, Trait, Covariate)
gsoep_nested4

## # A tibble: 80 x 4
##    Outcome  Trait  Covariate data                 
##    <chr>    <chr>  <chr>     <list>               
##  1 chldbrth DEP    age       <tibble [28,634 × 4]>
##  2 chldbrth DEP    gender    <tibble [28,634 × 4]>
##  3 chldbrth DEP    parEdu    <tibble [28,634 × 4]>
##  4 chldbrth DEP    SRhealth  <tibble [28,634 × 4]>
##  5 chldbrth NegAff age       <tibble [16,992 × 4]>
##  6 chldbrth NegAff gender    <tibble [16,992 × 4]>
##  7 chldbrth NegAff parEdu    <tibble [16,992 × 4]>
##  8 chldbrth NegAff SRhealth  <tibble [16,992 × 4]>
##  9 chldbrth OP     age       <tibble [9,192 × 4]> 
## 10 chldbrth OP     gender    <tibble [9,192 × 4]> 
## # … with 70 more rows
…
factor_fun <- function(x){if(is.numeric(x)){diff(range(x, na.rm = T)) %in% 1:2 & length(unique(x)) <= 4} else{F}}

mod4_fun <- function(d, cov){
  d$o_value <- factor(d$o_value)
  d <- d %>% mutate_if(factor_fun, factor)
  if(cov == "none"){f <- formula(o_value ~ p_value)} else{f <- formula(o_value ~ p_value* c_value)}
  glm(f, data = d, family = binomial(link = "logit"))
}

gsoep_nested4 <- gsoep_nested4 %>%
  mutate(m = map2(data, Covariate, mod4_fun),
         tidy = map(m, ~tidy(., conf.int = T)))
gsoep_nested4

## # A tibble: 80 x 6
##    Outcome  Trait  Covariate data                  m      tidy            
##    <chr>    <chr>  <chr>     <list>                <list> <list>          
##  1 chldbrth DEP    age       <tibble [28,634 × 4]> <glm>  <tibble [4 × 7]>
##  2 chldbrth DEP    gender    <tibble [28,634 × 4]> <glm>  <tibble [4 × 7]>
##  3 chldbrth DEP    parEdu    <tibble [28,634 × 4]> <glm>  <tibble [6 × 7]>
##  4 chldbrth DEP    SRhealth  <tibble [28,634 × 4]> <glm>  <tibble [4 × 7]>
##  5 chldbrth NegAff age       <tibble [16,992 × 4]> <glm>  <tibble [4 × 7]>
##  6 chldbrth NegAff gender    <tibble [16,992 × 4]> <glm>  <tibble [4 × 7]>
##  7 chldbrth NegAff parEdu    <tibble [16,992 × 4]> <glm>  <tibble [6 × 7]>
##  8 chldbrth NegAff SRhealth  <tibble [16,992 × 4]> <glm>  <tibble [4 × 7]>
##  9 chldbrth OP     age       <tibble [9,192 × 4]>  <glm>  <tibble [4 × 7]>
## 10 chldbrth OP     gender    <tibble [9,192 × 4]>  <glm>  <tibble [4 × 7]>
## # … with 70 more rows

Like before, we are going to have different numbers of rows. Again this is good becuase it means that the appropriate moderators and main effects were added.

Create the Table

tidy4 <- gsoep_nested4 %>%
  select(Outcome, Trait, Moderator = Covariate, tidy) %>%
  unnest(tidy)
tidy4

## # A tibble: 360 x 10
##    Outcome  Trait Moderator term  estimate std.error statistic  p.value conf.low
##    <chr>    <chr> <chr>     <chr>    <dbl>     <dbl>     <dbl>    <dbl>    <dbl>
##  1 chldbrth DEP   age       (Int… -4.16      0.226     -18.4   9.00e-76 -4.61   
##  2 chldbrth DEP   age       p_va…  0.172     0.0560      3.06  2.19e- 3  0.0630 
##  3 chldbrth DEP   age       c_va… -0.0725    0.00987    -7.35  1.95e-13 -0.0921 
##  4 chldbrth DEP   age       p_va…  0.00157   0.00245     0.643 5.20e- 1 -0.00320
##  5 chldbrth DEP   gender    (Int… -3.47      0.228     -15.2   2.05e-52 -3.93   
##  6 chldbrth DEP   gender    p_va…  0.128     0.0558      2.29  2.21e- 2  0.0194 
##  7 chldbrth DEP   gender    c_va… -0.0475    0.298      -0.160 8.73e- 1 -0.630  
##  8 chldbrth DEP   gender    p_va…  0.0406    0.0740      0.548 5.84e- 1 -0.105  
##  9 chldbrth DEP   parEdu    (Int… -3.63      0.177     -20.5   9.15e-94 -3.98   
## 10 chldbrth DEP   parEdu    p_va…  0.154     0.0441      3.49  4.90e- 4  0.0680 
## # … with 350 more rows, and 1 more variable: conf.high <dbl>
…
