…
Exercise: Reading in Subject-Level Data

old.names <- codebook$old_name # pull old names in raw data from codebook  
new.names <- codebook$new_name # pull new names from codebook  
df1 <- tibble(
  ID = list_files_github() %>% str_remove_all(., "05_purrr/data/example_1") %>% str_remove_all(., "[a-z A-Z_.//]")
  ) %>%
  mutate(data = map(ID, ~read_csv(sprintf("%s/data/example_1/%s.csv", data_path, .)))) %>%
  unnest(data) %>%
  select(ID, count, one_of(old.names)) %>% # select columns from codebook in loaded data  
  setNames(c("ID", "count", new.names)) # rename columns with new names  
df1

## # A tibble: 2,763 x 13
##    ID     count   O_1   E_1   N_1   N_2   O_2   C_1   A_1   C_2   A_2   E_2
##    <chr>  <dbl> <dbl> <dbl> <dbl> <dbl> <dbl> <dbl> <dbl> <dbl> <dbl> <dbl>
##  1 031501     1  3.98  3.82  2     3.89  5       NA  3       NA  2.63  4   
##  2 031501     2  4.00  2     1     3     2.90    NA  2.16    NA  3.54  3   
##  3 031501     3  4     3     3.5   4     4       NA  4.69    NA  4     3   
##  4 031501     4  3     3     3     4     3.06    NA  4       NA  3.27  3.46
##  5 031501     5  3.35  3.50  2     2     2.01    NA  4       NA  4     4   
##  6 031501     6  3.89  3     2.33  2.38  3.5     NA  4       NA  4.25  4   
##  7 031501     7  3.01  3     2.5   2     5.06    NA  4       NA  4     4.27
##  8 031501     8  3.00  3     2.5   2     3.56    NA  4       NA  4     4   
##  9 031501     9  4.00  2.5   2     3     4       NA  4       NA  3.95  3.65
## 10 031501    10  4.20  3.45  2     2     3       NA  3.87    NA  4     4   
## # … with 2,753 more rows, and 1 more variable: satisfaction <dbl>

Descriptives: Within-Person Correlations

With these kinds of data, the first thing, we may want to do is look at within-person correlations, which we can do with purrr.

nested.r <- df1 %>%
  group_by(ID) %>%
  nest() %>%
  mutate(r = map(data, ~cor((.) %>% select(-count), use = "pairwise")))
nested.r

## # A tibble: 59 x 3
## # Groups:   ID [59]
##    ID     data               r                   
##    <chr>  <list>             <list>              
##  1 031501 <tibble [64 × 12]> <dbl[,11] [11 × 11]>
##  2 031502 <tibble [39 × 12]> <dbl[,11] [11 × 11]>
##  3 032201 <tibble [68 × 12]> <dbl[,11] [11 × 11]>
##  4 032202 <tibble [65 × 12]> <dbl[,11] [11 × 11]>
##  5 032203 <tibble [61 × 12]> <dbl[,11] [11 × 11]>
##  6 032901 <tibble [79 × 12]> <dbl[,11] [11 × 11]>
##  7 040501 <tibble [48 × 12]> <dbl[,11] [11 × 11]>
##  8 040502 <tibble [41 × 12]> <dbl[,11] [11 × 11]>
##  9 040503 <tibble [53 × 12]> <dbl[,11] [11 × 11]>
## 10 040504 <tibble [41 × 12]> <dbl[,11] [11 × 11]>
## # … with 49 more rows

We can access it like a list:

nested.r$data[[1]]

## # A tibble: 64 x 12
##    count   O_1   E_1   N_1   N_2   O_2   C_1   A_1   C_2   A_2   E_2
##    <dbl> <dbl> <dbl> <dbl> <dbl> <dbl> <dbl> <dbl> <dbl> <dbl> <dbl>
##  1     1  3.98  3.82  2     3.89  5       NA  3       NA  2.63  4   
##  2     2  4.00  2     1     3     2.90    NA  2.16    NA  3.54  3   
##  3     3  4     3     3.5   4     4       NA  4.69    NA  4     3   
##  4     4  3     3     3     4     3.06    NA  4       NA  3.27  3.46
##  5     5  3.35  3.50  2     2     2.01    NA  4       NA  4     4   
##  6     6  3.89  3     2.33  2.38  3.5     NA  4       NA  4.25  4   
##  7     7  3.01  3     2.5   2     5.06    NA  4       NA  4     4.27
##  8     8  3.00  3     2.5   2     3.56    NA  4       NA  4     4   
##  9     9  4.00  2.5   2     3     4       NA  4       NA  3.95  3.65
## 10    10  4.20  3.45  2     2     3       NA  3.87    NA  4     4   
## # … with 54 more rows, and 1 more variable: satisfaction <dbl>

Models

To run separate models for each trait, we’ll need to reshape our data.

df.long <- df1 %>%
  gather(key = item, value = value, -count, -ID, -satisfaction, na.rm = T)
df.long

## # A tibble: 22,104 x 5
##    ID     count satisfaction item  value
##    <chr>  <dbl>        <dbl> <chr> <dbl>
##  1 031501     1         4.96 O_1    3.98
##  2 031501     2         4.79 O_1    4.00
##  3 031501     3         1.06 O_1    4   
##  4 031501     4         3.03 O_1    3   
##  5 031501     5         1.05 O_1    3.35
##  6 031501     6         2.50 O_1    3.89
##  7 031501     7         3.45 O_1    3.01
##  8 031501     8         2.39 O_1    3.00
##  9 031501     9         4.06 O_1    4.00
## 10 031501    10         4.20 O_1    4.20
## # … with 22,094 more rows

To create composites, we’ll separate traits from items.

df.long <- df1 %>%
  gather(key = item, value = value, -count, -ID, -satisfaction, na.rm = T) %>%
  separate(item, c("Trait",  "item"), sep = "_")
df.long

## # A tibble: 22,104 x 6
##    ID     count satisfaction Trait item  value
##    <chr>  <dbl>        <dbl> <chr> <chr> <dbl>
##  1 031501     1         4.96 O     1      3.98
##  2 031501     2         4.79 O     1      4.00
##  3 031501     3         1.06 O     1      4   
##  4 031501     4         3.03 O     1      3   
##  5 031501     5         1.05 O     1      3.35
##  6 031501     6         2.50 O     1      3.89
##  7 031501     7         3.45 O     1      3.01
##  8 031501     8         2.39 O     1      3.00
##  9 031501     9         4.06 O     1      4.00
## 10 031501    10         4.20 O     1      4.20
## # … with 22,094 more rows

To create composites, we’ll then group_by() trait, count, and ID and calculate the composites using summarize()

df.long <- df1 %>%
  gather(key = item, value = value, -count, -ID, -satisfaction, na.rm = T) %>%
  separate(item, c("Trait",  "item"), sep = "_") %>%
  group_by(ID, count, Trait) %>%
  summarize(value = mean(value)) 
df.long

## # A tibble: 11,052 x 4
## # Groups:   ID, count [2,763]
##    ID     count Trait value
##    <chr>  <dbl> <chr> <dbl>
##  1 031501     1 A      2.81
##  2 031501     1 E      3.91
##  3 031501     1 N      2.94
##  4 031501     1 O      4.49
##  5 031501     2 A      2.85
##  6 031501     2 E      2.5 
##  7 031501     2 N      2   
##  8 031501     2 O      3.45
##  9 031501     3 A      4.35
## 10 031501     3 E      3   
## # … with 11,042 more rows

Then we’ll get within-person centered values using scale().

df.long <- df1 %>%
  gather(key = item, value = value, -count, -ID, -satisfaction, na.rm = T) %>%
  separate(item, c("Trait",  "item"), sep = "_") %>%
  group_by(ID, count, Trait, satisfaction) %>%
  summarize(value = mean(value)) %>%
  group_by(ID, Trait) %>%
  mutate(value_c = as.numeric(scale(value, center = T, scale = F)))
df.long

## # A tibble: 11,052 x 6
## # Groups:   ID, Trait [236]
##    ID     count Trait satisfaction value value_c
##    <chr>  <dbl> <chr>        <dbl> <dbl>   <dbl>
##  1 031501     1 A             4.96  2.81  -0.976
##  2 031501     1 E             4.96  3.91   0.807
##  3 031501     1 N             4.96  2.94   0.552
##  4 031501     1 O             4.96  4.49   0.907
##  5 031501     2 A             4.79  2.85  -0.939
##  6 031501     2 E             4.79  2.5   -0.604
##  7 031501     2 N             4.79  2     -0.393
##  8 031501     2 O             4.79  3.45  -0.128
##  9 031501     3 A             1.06  4.35   0.557
## 10 031501     3 E             1.06  3     -0.104
## # … with 11,042 more rows

And grand-mean centered within-person averages

df.long <- df.long %>%
  group_by(ID, Trait) %>%
  summarize(value_gmc = mean(value)) %>%
  group_by(Trait) %>%
  mutate(value_gmc = as.numeric(scale(value_gmc, center = T, scale = F))) %>%
  full_join(df.long)
df.long

## # A tibble: 11,052 x 7
## # Groups:   Trait [5]
##    ID     Trait value_gmc count satisfaction value value_c
##    <chr>  <chr>     <dbl> <dbl>        <dbl> <dbl>   <dbl>
##  1 031501 A        -0.108     1         4.96  2.81  -0.976
##  2 031501 A        -0.108     2         4.79  2.85  -0.939
##  3 031501 A        -0.108     3         1.06  4.35   0.557
##  4 031501 A        -0.108     4         3.03  3.64  -0.154
##  5 031501 A        -0.108     5         1.05  4      0.211
##  6 031501 A        -0.108     6         2.50  4.12   0.336
##  7 031501 A        -0.108     7         3.45  4      0.211
##  8 031501 A        -0.108     8         2.39  4      0.211
##  9 031501 A        -0.108     9         4.06  3.98   0.186
## 10 031501 A        -0.108    10         4.20  3.93   0.145
## # … with 11,042 more rows
…
Which we can print into pretty data frames

nested.mods %>%
  select(Trait, tidy) %>%
  unnest(tidy)

## # A tibble: 30 x 9
## # Groups:   Trait [5]
##    Trait effect  group  term     estimate std.error statistic conf.low conf.high
##    <chr> <chr>   <chr>  <chr>       <dbl>     <dbl>     <dbl>    <dbl>     <dbl>
##  1 A     fixed   <NA>   (Interc…   2.98      0.0248   120.      2.93     3.03   
##  2 A     fixed   <NA>   value_c   -0.0233    0.0399    -0.584  -0.101    0.0549 
##  3 A     fixed   <NA>   value_g…   0.129     0.0920     1.40   -0.0518   0.309  
##  4 A     fixed   <NA>   value_c…   0.162     0.142      1.14   -0.117    0.440  
##  5 A     ran_pa… ID     sd__(In…   0.0404   NA         NA      NA       NA      
##  6 A     ran_pa… Resid… sd__Obs…   1.15     NA         NA      NA       NA      
##  7 E     fixed   <NA>   (Interc…   2.98      0.0250   119.      2.93     3.03   
##  8 E     fixed   <NA>   value_c   -0.0672    0.0354    -1.90   -0.137    0.00219
##  9 E     fixed   <NA>   value_g…   0.174     0.0725     2.40    0.0319   0.316  
## 10 E     fixed   <NA>   value_c…   0.0248    0.0971     0.256  -0.165    0.215  
## # … with 20 more rows
…
