…
Keeping Track of Classes of Variables

Easier Reverse-Coding

Easier Recoding

Your future self will thank you.

Below, I will demonstrate each of these.

Read in the Codebook

Below, I’ll load in the codebook we will use for this study, which will include all of the above columns.

## # A tibble: 153 x 13
##    dataset old_name item_text  scale     category label item_name  year new_name
##    <chr>   <chr>    <chr>      <chr>     <chr>    <chr> <chr>     <dbl> <chr>   
##  1 <NA>    persnr   Never Cha…  <NA>     Procedu… <NA>  SID           0 Procedu…
##  2 <NA>    hhnr     household…  <NA>     Procedu… <NA>  household     0 Procedu…
##  3 ppfad   gebjahr  Year of B… "numeric" Demogra… <NA>  DOB           0 Demogra…
##  4 ppfad   sex      Sex        "\n1 [1]… Demogra… <NA>  Sex           0 Demogra…
##  5 vp      vp12501  Thorough …  <NA>     Big 5    C     thorough   2005 Big 5__…
##  6 zp      zp12001  Thorough …  <NA>     Big 5    C     thorough   2009 Big 5__…
##  7 bdp     bdp15101 Thorough …  <NA>     Big 5    C     thorough   2013 Big 5__…
##  8 vp      vp12502  Am commun…  <NA>     Big 5    E     communic   2005 Big 5__…
##  9 zp      zp12002  Am commun…  <NA>     Big 5    E     communic   2009 Big 5__…
## 10 bdp     bdp15102 Am commun…  <NA>     Big 5    E     communic   2013 Big 5__…
## # … with 143 more rows, and 4 more variables: reverse <dbl>, mini <dbl>,
## #   maxi <dbl>, recode <chr>

Data

First, we need to load in the data. We’re going to use three waves of data from the German Socioeconomic Panel Study, which is a longitudinal study of German households that has been conducted since 1984. We’re going to use more recent data from three waves of personality data collected between 2005 and 2013.

Note: we will be using the teaching set of the GSOEP data set. I will not be pulling from the raw files as a result of this. I will also not be mirroring the format that you would usually load the GSOEP from because that is slightly more complicated and somethng we will return to in a later tutorial on purrr (link) after we have more skills. I’ve left that code for now, but it won’t make a lot of sense right now.

This code below shows how I would read in and rename a wide-format data set using the codebook I created.

## # A tibble: 28,290 x 153
##    Procedural__SID Procedural__household Demographic__DOB Demographic__Sex
##              <dbl>                 <dbl>            <dbl>            <dbl>
##  1             901                    94             1951                2
##  2            1202                   124             1913                2
##  3            2301                   230             1946                1
##  4            2302                   230             1946                2
##  5            2304                   230             1978                1
##  6            2305                   230             1946                2
##  7            4601                   469             1933                2
##  8            4701                   477             1919                2
##  9            4901                   493             1925                2
## 10            5201                   523             1955                1
## # … with 28,280 more rows, and 149 more variables:
## #   Big 5__C_thorough.2005 <dbl>, Big 5__C_thorough.2009 <dbl>,
## #   Big 5__C_thorough.2013 <dbl>, Big 5__E_communic.2005 <dbl>,
## #   Big 5__E_communic.2009 <dbl>, Big 5__E_communic.2013 <dbl>,
## #   Big 5__A_coarse.2005 <dbl>, Big 5__A_coarse.2009 <dbl>,
## #   Big 5__A_coarse.2013 <dbl>, Big 5__O_original.2005 <dbl>,
## #   Big 5__O_original.2009 <dbl>, Big 5__O_original.2013 <dbl>,
## #   Big 5__N_worry.2005 <dbl>, Big 5__N_worry.2009 <dbl>,
## #   Big 5__N_worry.2013 <dbl>, Big 5__A_forgive.2005 <dbl>,
…
Clean Data

Recode Variables

Many of the data we work with have observations that are missing for a variety of reasons. In R, we treat missing values as NA, but many other programs from which you may be importing your data may use other codes (e.g. 999, -999, etc.). Large panel studies tend to use small negative values to indicate different types of missingness. This is why it is important to note down the scale in your codebook. That way you can check which values may need to be recoded to explicit NA values.

In the GSOEP, -1 to -7 indicate various types of missing values, so we will recode these to NA. To do this, we will use one of my favorite functions, mapvalues(), from the plyr package. In later tutorials where we read in and manipulate more complex data sets, we will use mapvalues() a lot. Basically, mapvalues takes 4 key arguments: (1) the variable you are recoding, (2) a vector of initial values from which you want to (3) recode your variable to using a vector of new values in the same order as the old values, and (4) a way to turn off warnings if some levels are not in your data (warn_missing = F).

## # A tibble: 28,290 x 153
##    Procedural__SID Procedural__household Demographic__DOB Demographic__Sex
##              <dbl>                 <dbl>            <dbl>            <dbl>
##  1             901                    94             1951                2
##  2            1202                   124             1913                2
##  3            2301                   230             1946                1
##  4            2302                   230             1946                2
##  5            2304                   230             1978                1
##  6            2305                   230             1946                2
##  7            4601                   469             1933                2
##  8            4701                   477             1919                2
##  9            4901                   493             1925                2
## 10            5201                   523             1955                1
## # … with 28,280 more rows, and 149 more variables:
## #   Big 5__C_thorough.2005 <dbl>, Big 5__C_thorough.2009 <dbl>,
## #   Big 5__C_thorough.2013 <dbl>, Big 5__E_communic.2005 <dbl>,
## #   Big 5__E_communic.2009 <dbl>, Big 5__E_communic.2013 <dbl>,
## #   Big 5__A_coarse.2005 <dbl>, Big 5__A_coarse.2009 <dbl>,
## #   Big 5__A_coarse.2013 <dbl>, Big 5__O_original.2005 <dbl>,
## #   Big 5__O_original.2009 <dbl>, Big 5__O_original.2013 <dbl>,
## #   Big 5__N_worry.2005 <dbl>, Big 5__N_worry.2009 <dbl>,
## #   Big 5__N_worry.2013 <dbl>, Big 5__A_forgive.2005 <dbl>,
…
Reverse-Scoring

Many scales we use have items that are positively or negatively keyed. High ratings on positively keyed items are indicative of being high on a construct. In contrast, high ratings on negatively keyed items are indicative of being low on a construct. Thus, to create the composite scores of constructs we often use, we must first “reverse” the negatively keyed items so that high scores indicate being higher on the construct.

There are a few ways to do this in R. Below, I’ll demonstrate how to do so using the reverse.code() function in the psych package in R. This function was built to make reverse coding more efficient (i.e. please don’t run every item that needs to be recoded with separate lines of code!!).

Before we can do that, though, we need to restructure the data a bit in order to bring in the reverse coding information from our codebook. We will talk more about what’s happening here in later tutorials on tidyr, so for now, just bear with me.

## # A tibble: 471,722 x 12
##    Procedural__SID Procedural__household Demographic__DOB Demographic__Sex type 
##              <dbl>                 <dbl>            <dbl>            <dbl> <chr>
##  1             901                    94             1951                2 Big 5
##  2            1202                   124             1913                2 Big 5
##  3            2301                   230             1946                1 Big 5
##  4            2302                   230             1946                2 Big 5
##  5            2304                   230             1978                1 Big 5
##  6            4601                   469             1933                2 Big 5
##  7            4701                   477             1919                2 Big 5
##  8            4901                   493             1925                2 Big 5
##  9            5201                   523             1955                1 Big 5
## 10            5202                   523             1956                2 Big 5
## # … with 471,712 more rows, and 7 more variables: item <chr>, scrap <chr>,
## #   year <chr>, value <dbl>, reverse <dbl>, mini <dbl>, maxi <dbl>

Create Composites

Now that we have reverse coded our items, we can create composites.

BFI-S

We’ll start with our scale – in this case, the Big 5 from the German translation of the BFI-S.

Here’s the simplest way, which is also the long way because you’d have to do it for each scale in each year, which I don’t recommend.

But personally, I don’t have a desire to do that 15 times, so we can use our codebook and dplyr to make our lives a whole lot easier.

## # A tibble: 151,186 x 6
##    Procedural__SID item  year  value   DOB   Sex
##              <dbl> <chr> <chr> <dbl> <dbl> <dbl>
##  1             901 A     2005   4.67  1951     2
##  2             901 A     2009   5     1951     2
##  3             901 A     2013   4.67  1951     2
##  4             901 C     2005   5     1951     2
##  5             901 C     2009   5     1951     2
##  6             901 C     2013   5.67  1951     2
##  7             901 E     2005   3.67  1951     2
##  8             901 E     2009   3.67  1951     2
##  9             901 E     2013   3.67  1951     2
## 10             901 N     2005   3.33  1951     2
## # … with 151,176 more rows

Life Events

We also want to create a variable that indexes whether our participants experienced any of the life events during the years of interest (2005-2015).

## # A tibble: 15,061 x 3
##    Procedural__SID item      le_value
##              <dbl> <chr>        <dbl>
##  1             901 MomDied          1
##  2            2301 MoveIn           0
##  3            2301 PartDied         1
##  4            2305 MoveIn           0
##  5            4601 PartDied         0
##  6            5201 ChldMvOut        1
##  7            5201 DadDied          0
##  8            5202 ChldMvOut        1
##  9            5203 MoveIn           1
## 10            5303 MomDied          0
## # … with 15,051 more rows

Create Combination Data Set

For the analyses I’d want to do with this data set, I’d want to combine every combination of personality traits with every combination of event we have data for each person for. In other words, I’m looking for a data frame that looks like this:

SID
year
Event
le_value
Trait
p_value

## # A tibble: 138,820 x 8
##    Procedural__SID year    DOB   Sex Event    le_value Trait p_value
##              <dbl> <chr> <dbl> <dbl> <chr>       <dbl> <chr>   <dbl>
##  1             901 2005   1951     2 MomDied         1 A        4.67
##  2             901 2009   1951     2 MomDied         1 A        5   
##  3             901 2013   1951     2 MomDied         1 A        4.67
##  4            2301 2005   1946     1 MoveIn          0 A        5   
##  5            2301 2005   1946     1 PartDied        1 A        5   
##  6            2301 2009   1946     1 MoveIn          0 A        5.67
##  7            2301 2009   1946     1 PartDied        1 A        5.67
##  8            2301 2013   1946     1 MoveIn          0 A        6   
##  9            2301 2013   1946     1 PartDied        1 A        6   
## 10            4601 2005   1933     2 PartDied        0 A        6.33
## # … with 138,810 more rows
…
