Emorie D. Beck, PhD - Codebooks and Workflow
…
# set the path
wd <- "https://github.com/emoriebeck/R-tutorials/blob/master/06_workflow"

download.file(
  url      = sprintf("%s/data/codebook.csv?raw=true", wd), 
  destfile = sprintf("%s/data/codebook.csv", data_path)
  )

# load the codebook
(codebook <- sprintf("%s/data/codebook.csv", data_path) %>% 
    read_csv(.) %>%
    mutate(old_name = str_to_lower(old_name)))

# A tibble: 153 × 13
   dataset old_name item_text  scale categ…¹ label item_…²  year new_n…³ reverse
   <chr>   <chr>    <chr>      <chr> <chr>   <chr> <chr>   <dbl> <chr>     <dbl>
 1 <NA>    persnr   Never Cha…  <NA> Proced… <NA>  SID         0 Proced…       1
 2 <NA>    hhnr     household…  <NA> Proced… <NA>  househ…     0 Proced…       1
 3 ppfad   gebjahr  Year of B… "num… Demogr… <NA>  DOB         0 Demogr…       1
 4 ppfad   sex      Sex        "\n1… Demogr… <NA>  Sex         0 Demogr…       1
 5 vp      vp12501  Thorough …  <NA> Big 5   C     thorou…  2005 Big 5_…       1
 6 zp      zp12001  Thorough …  <NA> Big 5   C     thorou…  2009 Big 5_…       1
 7 bdp     bdp15101 Thorough …  <NA> Big 5   C     thorou…  2013 Big 5_…       1
 8 vp      vp12502  Am commun…  <NA> Big 5   E     commun…  2005 Big 5_…       1
 9 zp      zp12002  Am commun…  <NA> Big 5   E     commun…  2009 Big 5_…       1
10 bdp     bdp15102 Am commun…  <NA> Big 5   E     commun…  2013 Big 5_…       1
# … with 143 more rows, 3 more variables: mini <dbl>, maxi <dbl>, recode <chr>,
#   and abbreviated variable names ¹​category, ²​item_name, ³​new_name
…
# download the file
download.file(
  url      = sprintf("%s/data/workflow_data.csv?raw=true", wd), 
  destfile = sprintf("%s/data/workflow_data.csv", data_path)
  )

old.names <- codebook$old_name # get old column names
new.names <- codebook$new_name # get new column names

(soep <- sprintf("%s/data/workflow_data.csv", data_path) %>% # path to data
  read_csv(.) %>% # read in data
  select(old.names) %>% # select the columns from our codebook
  setNames(new.names)) # rename columns with our new names

# A tibble: 28,290 × 153
   Procedural_…¹ Proce…² Demog…³ Demog…⁴ Big 5…⁵ Big 5…⁶ Big 5…⁷ Big 5…⁸ Big 5…⁹
           <dbl>   <dbl>   <dbl>   <dbl>   <dbl>   <dbl>   <dbl>   <dbl>   <dbl>
 1           901      94    1951       2       6      -1       7       4       4
 2          1202     124    1913       2       7      NA      NA       6      NA
 3          2301     230    1946       1       7       6       6       6       4
 4          2302     230    1946       2       6       7       7       5       5
 5          2304     230    1978       1       5      NA      NA       7      NA
 6          2305     230    1946       2      NA      NA      NA      NA      NA
 7          4601     469    1933       2       6      NA      NA       6      NA
 8          4701     477    1919       2       6       6      NA       6       5
 9          4901     493    1925       2       5       6       6       7       6
10          5201     523    1955       1       7       7       7       5       6
# … with 28,280 more rows, 144 more variables: `Big 5__E_communic.2013` <dbl>,
#   `Big 5__A_coarse.2005` <dbl>, `Big 5__A_coarse.2009` <dbl>,
#   `Big 5__A_coarse.2013` <dbl>, `Big 5__O_original.2005` <dbl>,
#   `Big 5__O_original.2009` <dbl>, `Big 5__O_original.2013` <dbl>,
#   `Big 5__N_worry.2005` <dbl>, `Big 5__N_worry.2009` <dbl>,
#   `Big 5__N_worry.2013` <dbl>, `Big 5__A_forgive.2005` <dbl>,
#   `Big 5__A_forgive.2009` <dbl>, `Big 5__A_forgive.2013` <dbl>, …

Clean Data

Recode Variables

Many of the data we work with have observations that are missing for a variety of reasons. In R, we treat missing values as NA, but many other programs from which you may be importing your data may use other codes (e.g. 999, -999, etc.). Large panel studies tend to use small negative values to indicate different types of missingness. This is why it is important to note down the scale in your codebook. That way you can check which values may need to be recoded to explicit NA values.

In the GSOEP, -1 to -7 indicate various types of missing values, so we will recode these to NA. To do this, we will use one of my favorite functions, mapvalues(), from the plyr package. In later tutorials where we read in and manipulate more complex data sets, we will use mapvalues() a lot. Basically, mapvalues takes 4 key arguments: (1) the variable you are recoding, (2) a vector of initial values from which you want to (3) recode your variable to using a vector of new values in the same order as the old values, and (4) a way to turn off warnings if some levels are not in your data (warn_missing = F).

(soep <- soep %>%
  mutate_all(~as.numeric(mapvalues(., from = seq(-1,-7, -1), # recode negative 
                to = rep(NA, 7), warn_missing = F)))) # values to NA

# A tibble: 28,290 × 153
   Procedural_…¹ Proce…² Demog…³ Demog…⁴ Big 5…⁵ Big 5…⁶ Big 5…⁷ Big 5…⁸ Big 5…⁹
           <dbl>   <dbl>   <dbl>   <dbl>   <dbl>   <dbl>   <dbl>   <dbl>   <dbl>
 1           901      94    1951       2       6      NA       7       4       4
 2          1202     124    1913       2       7      NA      NA       6      NA
 3          2301     230    1946       1       7       6       6       6       4
 4          2302     230    1946       2       6       7       7       5       5
 5          2304     230    1978       1       5      NA      NA       7      NA
 6          2305     230    1946       2      NA      NA      NA      NA      NA
 7          4601     469    1933       2       6      NA      NA       6      NA
 8          4701     477    1919       2       6       6      NA       6       5
 9          4901     493    1925       2       5       6       6       7       6
10          5201     523    1955       1       7       7       7       5       6
# … with 28,280 more rows, 144 more variables: `Big 5__E_communic.2013` <dbl>,
#   `Big 5__A_coarse.2005` <dbl>, `Big 5__A_coarse.2009` <dbl>,
#   `Big 5__A_coarse.2013` <dbl>, `Big 5__O_original.2005` <dbl>,
#   `Big 5__O_original.2009` <dbl>, `Big 5__O_original.2013` <dbl>,
#   `Big 5__N_worry.2005` <dbl>, `Big 5__N_worry.2009` <dbl>,
#   `Big 5__N_worry.2013` <dbl>, `Big 5__A_forgive.2005` <dbl>,
#   `Big 5__A_forgive.2009` <dbl>, `Big 5__A_forgive.2013` <dbl>, …
…
Before we can do that, though, we need to restructure the data a bit in order to bring in the reverse coding information from our codebook. We will talk more about what’s happening here in later tutorials on tidyr, so for now, just bear with me.

(soep_long <- soep %>%
  gather(key = item, value = value, -contains("Procedural"), # change to long format
         -contains("Demographic"), na.rm = T) %>%
  left_join(codebook %>% select(item = new_name, reverse, mini, maxi)) %>% # bring in codebook
  separate(item, c("type", "item"), sep = "__") %>% # separate category
  separate(item, c("item", "year"), sep = "[.]") %>% # seprate year
  separate(item, c("item", "scrap"), sep = "_") %>% # separate scale and item
  mutate(value = as.numeric(value), # change to numeric
         value = ifelse(reverse == -1, 
            reverse.code(-1, value, mini = mini, maxi = maxi), value)))

# A tibble: 471,722 × 12
   Procedu…¹ Proce…² Demog…³ Demog…⁴ type  item  scrap year  value reverse  mini
       <dbl>   <dbl>   <dbl>   <dbl> <chr> <chr> <chr> <chr> <dbl>   <dbl> <dbl>
 1       901      94    1951       2 Big 5 C     thor… 2005      6       1     1
 2      1202     124    1913       2 Big 5 C     thor… 2005      7       1     1
 3      2301     230    1946       1 Big 5 C     thor… 2005      7       1     1
 4      2302     230    1946       2 Big 5 C     thor… 2005      6       1     1
 5      2304     230    1978       1 Big 5 C     thor… 2005      5       1     1
 6      4601     469    1933       2 Big 5 C     thor… 2005      6       1     1
 7      4701     477    1919       2 Big 5 C     thor… 2005      6       1     1
 8      4901     493    1925       2 Big 5 C     thor… 2005      5       1     1
 9      5201     523    1955       1 Big 5 C     thor… 2005      7       1     1
10      5202     523    1956       2 Big 5 C     thor… 2005      6       1     1
# … with 471,712 more rows, 1 more variable: maxi <dbl>, and abbreviated
#   variable names ¹​Procedural__SID, ²​Procedural__household, ³​Demographic__DOB,
#   ⁴​Demographic__Sex
…
But personally, I don’t have a desire to do that 15 times, so we can use our codebook and dplyr to make our lives a whole lot easier.

soep <- soep %>% select(-C.2005) # get rid of added column

(b5_soep_long <- soep_long %>%
  filter(type == "Big 5") %>% # keep Big 5 variables
  group_by(Procedural__SID, item, year) %>% # group by person, construct, & year
  summarize(value = mean(value, na.rm = T)) %>% # calculate means
  ungroup() %>% # ungroup
  left_join(soep_long %>% # bring demographic info back in 
    select(Procedural__SID, DOB = Demographic__DOB, Sex = Demographic__Sex) %>%
    distinct()))

# A tibble: 151,186 × 6
   Procedural__SID item  year  value   DOB   Sex
             <dbl> <chr> <chr> <dbl> <dbl> <dbl>
 1             901 A     2005   4.67  1951     2
 2             901 A     2009   5     1951     2
 3             901 A     2013   4.67  1951     2
 4             901 C     2005   5     1951     2
 5             901 C     2009   5     1951     2
 6             901 C     2013   5.67  1951     2
 7             901 E     2005   3.67  1951     2
 8             901 E     2009   3.67  1951     2
 9             901 E     2013   3.67  1951     2
10             901 N     2005   3.33  1951     2
# … with 151,176 more rows

Life Events

We also want to create a variable that indexes whether our participants experienced any of the life events during the years of interest (2005-2015).

(events_long <- soep_long %>%
  filter(type == "Life Event") %>% # keep only life events
  group_by(Procedural__SID, item) %>% # group by person and event
  summarize(le_value = sum(value, na.rm = T), # sum up whether they experiened the event at all
            le_value = ifelse(le_value > 1, 1, 0)) %>% # if more than once 1, otherwise 0
   ungroup())

# A tibble: 15,061 × 3
   Procedural__SID item      le_value
             <dbl> <chr>        <dbl>
 1             901 MomDied          1
 2            2301 MoveIn           0
 3            2301 PartDied         1
 4            2305 MoveIn           0
 5            4601 PartDied         0
 6            5201 ChldMvOut        1
 7            5201 DadDied          0
 8            5202 ChldMvOut        1
 9            5203 MoveIn           1
10            5303 MomDied          0
# … with 15,051 more rows
…
SID
year
Event
le_value
Trait
p_value

# Create combined data frame  
(combined_long <- b5_soep_long %>% # take Big Five Data 
  spread(item, value) %>% # Spread it wide 
  full_join(events_long %>% rename(Event = item)) %>% # Join it with Events
  filter(!is.na(Event)) %>% # take out people who don't have event data
  gather(key = Trait, value = p_value, A:O)) # change to doubly long

# A tibble: 138,820 × 8
   Procedural__SID year    DOB   Sex Event    le_value Trait p_value
             <dbl> <chr> <dbl> <dbl> <chr>       <dbl> <chr>   <dbl>
 1             901 2005   1951     2 MomDied         1 A        4.67
 2             901 2009   1951     2 MomDied         1 A        5   
 3             901 2013   1951     2 MomDied         1 A        4.67
 4            2301 2005   1946     1 MoveIn          0 A        5   
 5            2301 2005   1946     1 PartDied        1 A        5   
 6            2301 2009   1946     1 MoveIn          0 A        5.67
 7            2301 2009   1946     1 PartDied        1 A        5.67
 8            2301 2013   1946     1 MoveIn          0 A        6   
 9            2301 2013   1946     1 PartDied        1 A        6   
10            4601 2005   1933     2 PartDied        0 A        6.33
# … with 138,810 more rows
…
